{
  "file_generated_by": "FlutterFire CLI",
  "purpose": "FirebaseAppID & ProjectID for this Firebase app in this directory",
  "GOOGLE_APP_ID": "1:1020175553328:ios:3f1b5a114411774f582ef5",
  "FIREBASE_PROJECT_ID": "milan-bf6be",
  "GCM_SENDER_ID": "1020175553328"
}